Data,Otw,Min,Max,Zamkniecie,Zmiana [%],Obroty [mln PLN]
"2017-12-29","53,40","53,11","53,95","53,95","+1,03","0,43"
"2017-12-28","52,43","52,15","53,50","53,40","+1,85","0,52"
"2017-12-27","52,38","51,51","52,49","52,43","+0,10","0,23"
"2017-12-22","52,40","52,22","52,99","52,38","-0,42","0,78"
"2017-12-21","52,69","52,40","53,48","52,60","-0,75","0,22"
"2017-12-20","52,49","52,20","53,10","53,00","+0,97","0,47"
"2017-12-19","52,50","52,49","53,00","52,49","-0,21","0,33"
"2017-12-18","52,70","52,50","52,86","52,60","+0,00","0,10"
"2017-12-15","52,00","52,00","52,75","52,60","+0,21","0,09"
"2017-12-14","52,50","51,83","52,78","52,49","+0,92","0,39"
"2017-12-13","51,58","51,45","52,30","52,01","+1,17","1,47"
"2017-12-12","51,95","51,41","51,96","51,41","-1,06","0,03"
"2017-12-11","51,50","51,10","51,97","51,96","+0,87","0,04"
"2017-12-08","52,10","51,50","52,10","51,51","-0,94","0,09"
"2017-12-07","52,01","51,52","52,16","52,00","-0,02","0,06"
"2017-12-06","52,01","52,01","52,25","52,01","-1,12","0,01"
"2017-12-05","52,70","52,00","52,73","52,60","-0,25","0,28"
"2017-12-04","51,83","51,50","52,86","52,73","+1,74","0,10"
"2017-12-01","51,73","51,00","51,86","51,83","+0,00","0,32"