Data,Otw,Min,Max,Zamkniecie,Zmiana [%],Obroty [mln PLN]
"2017-02-28","58,37","57,33","58,37","57,75","-0,33","0,53"
"2017-02-27","58,47","57,94","58,80","57,94","-0,90","0,20"
"2017-02-24","59,19","57,34","59,19","58,47","-1,07","1,29"
"2017-02-23","58,66","58,47","59,13","59,10","+1,08","0,18"
"2017-02-22","58,59","58,28","58,71","58,47","+0,02","0,32"
"2017-02-21","58,28","57,97","58,71","58,46","+0,31","0,34"
"2017-02-20","58,28","58,10","58,47","58,28","+0,00","1,25"
"2017-02-17","59,90","58,18","59,90","58,28","-1,05","1,84"
"2017-02-16","58,87","58,87","59,23","58,90","+0,41","0,44"
"2017-02-15","58,94","58,18","58,95","58,66","+0,03","0,17"
"2017-02-14","59,04","57,82","59,05","58,64","-0,68","0,67"
"2017-02-13","59,04","58,57","59,04","59,04","+0,00","0,30"
"2017-02-10","59,71","58,87","60,19","59,04","-1,51","1,04"
"2017-02-09","59,54","59,21","59,98","59,95","+0,79","0,47"
"2017-02-08","59,23","58,97","59,70","59,48","+0,45","0,32"
"2017-02-07","62,77","58,22","62,77","59,21","-5,37","2,70"
"2017-02-06","62,39","62,34","63,23","62,58","+0,46","0,19"
"2017-02-03","62,39","61,88","63,29","62,29","-0,15","0,79"
"2017-02-02","63,34","61,91","63,34","62,39","-1,51","0,33"
"2017-02-01","63,06","62,63","63,53","63,34","+0,00","0,58"