Data,Otw,Min,Max,Zamkniecie,Zmiana [%],Obroty [mln PLN]
"2017-10-31","51,51","51,10","51,85","51,85","+0,43","0,23"
"2017-10-30","50,45","50,01","52,00","51,63","+2,24","0,18"
"2017-10-27","48,80","48,80","50,50","50,50","+3,50","0,20"
"2017-10-26","48,61","48,60","48,97","48,79","-0,10","0,07"
"2017-10-25","49,20","48,60","49,20","48,84","-1,43","0,48"
"2017-10-24","50,20","49,55","50,50","49,55","-1,39","0,31"
"2017-10-23","51,49","49,60","51,49","50,25","-1,72","0,05"
"2017-10-20","50,81","50,41","51,88","51,13","+0,63","0,10"
"2017-10-19","51,49","50,66","51,49","50,81","-1,34","0,04"
"2017-10-18","51,99","50,78","51,99","51,50","-1,51","0,10"
"2017-10-17","52,14","51,00","52,98","52,29","-0,40","0,09"
"2017-10-16","53,00","52,50","53,68","52,50","-1,96","0,41"
"2017-10-13","53,30","53,30","53,60","53,55","+0,28","0,76"
"2017-10-12","52,80","52,14","53,69","53,40","+1,42","1,20"
"2017-10-11","51,44","51,44","52,80","52,65","+3,24","1,46"
"2017-10-10","51,00","51,00","51,80","51,00","+0,20","0,32"
"2017-10-09","50,00","49,98","51,10","50,90","+1,82","0,12"
"2017-10-06","49,95","49,58","50,20","49,99","+1,19","0,21"
"2017-10-05","49,65","49,40","50,00","49,40","-0,40","0,19"
"2017-10-04","50,10","49,60","51,28","49,60","-0,82","0,22"
"2017-10-03","51,28","50,01","51,28","50,01","-1,86","0,03"
"2017-10-02","50,60","50,50","51,00","50,96","+0,00","0,25"